codes/CPU.vcd
$date
	Fri Jan  1 22:06:38 2021
$end
$version
	Icarus Verilog
$end
$timescale
	1s
$end
$scope module testbench $end
$var wire 32 ! cpu_mem_addr [31:0] $end
$var wire 256 " cpu_mem_data [255:0] $end
$var wire 1 # cpu_mem_enable $end
$var wire 1 $ cpu_mem_write $end
$var wire 256 % mem_cpu_data [255:0] $end
$var wire 1 & mem_cpu_ack $end
$var reg 1 ' Clk $end
$var reg 1 ( Reset $end
$var reg 1 ) Start $end
$var reg 27 * address [26:0] $end
$var reg 1 + flag $end
$var reg 4 , index [3:0] $end
$var reg 25 - tag [24:0] $end
$var integer 32 . counter [31:0] $end
$var integer 32 / i [31:0] $end
$var integer 32 0 j [31:0] $end
$var integer 32 1 outfile [31:0] $end
$var integer 32 2 outfile2 [31:0] $end
$scope module CPU $end
$var wire 1 ' clk_i $end
$var wire 32 3 mem_addr_o [31:0] $end
$var wire 256 4 mem_data_o [255:0] $end
$var wire 1 # mem_enable_o $end
$var wire 1 $ mem_write_o $end
$var wire 1 ( rst_i $end
$var wire 1 ) start_i $end
$var wire 256 5 mem_data_i [255:0] $end
$var wire 1 & mem_ack_i $end
$scope module ALU $end
$var wire 1 6 Zero_o $end
$var wire 32 7 data2_i [31:0] $end
$var wire 32 8 data1_i [31:0] $end
$var wire 3 9 ALUCtrl_i [2:0] $end
$var reg 32 : data_o [31:0] $end
$upscope $end
$scope module ALU_Control $end
$var wire 10 ; funct_i [9:0] $end
$var wire 2 < ALUOp_i [1:0] $end
$var reg 3 = ALUCtrl_o [2:0] $end
$upscope $end
$scope module Add_PC $end
$var wire 32 > data2_in [31:0] $end
$var wire 32 ? data_o [31:0] $end
$var wire 32 @ data1_in [31:0] $end
$upscope $end
$scope module And_Gat $end
$var wire 1 A input2_i $end
$var wire 1 B input1_i $end
$var reg 1 C data_o $end
$upscope $end
$scope module Control $end
$var wire 7 D Op_i [6:0] $end
$var wire 1 E No_op_i $end
$var reg 2 F ALUOp_o [1:0] $end
$var reg 1 G ALUSrc_o $end
$var reg 1 B Branch_o $end
$var reg 1 H MemRead_o $end
$var reg 1 I MemToReg_o $end
$var reg 1 J MemWrite_o $end
$var reg 1 K RegWrite_o $end
$upscope $end
$scope module EX_MEM $end
$var wire 32 L ALUresult_i [31:0] $end
$var wire 1 ' clk_i $end
$var wire 1 M RegWrite_i $end
$var wire 32 N Readdata2_i [31:0] $end
$var wire 1 O MemWrite_i $end
$var wire 1 P MemToReg_i $end
$var wire 1 Q MemStall_i $end
$var wire 1 R MemRead_i $end
$var wire 5 S INS_11_7_i [4:0] $end
$var reg 32 T ALUresult_o [31:0] $end
$var reg 5 U INS_11_7_o [4:0] $end
$var reg 1 V MemRead_o $end
$var reg 1 W MemToReg_o $end
$var reg 1 X MemWrite_o $end
$var reg 32 Y Readdata2_o [31:0] $end
$var reg 1 Z RegWrite_o $end
$upscope $end
$scope module Equal $end
$var wire 32 [ input2_i [31:0] $end
$var wire 32 \ input1_i [31:0] $end
$var reg 1 A data_o $end
$upscope $end
$scope module ForwardA_MUX $end
$var wire 32 ] input_10_i [31:0] $end
$var wire 32 ^ input_11_i [31:0] $end
$var wire 2 _ select_i [1:0] $end
$var wire 32 ` input_01_i [31:0] $end
$var wire 32 a input_00_i [31:0] $end
$var reg 32 b data_o [31:0] $end
$upscope $end
$scope module ForwardB_MUX $end
$var wire 32 c input_10_i [31:0] $end
$var wire 32 d input_11_i [31:0] $end
$var wire 2 e select_i [1:0] $end
$var wire 32 f input_01_i [31:0] $end
$var wire 32 g input_00_i [31:0] $end
$var reg 32 h data_o [31:0] $end
$upscope $end
$scope module Forwarding_Unit $end
$var wire 5 i MEM_Rd_i [4:0] $end
$var wire 1 Z MEM_RegWrite_i $end
$var wire 1 j WB_RegWrite_i $end
$var wire 5 k WB_Rd_i [4:0] $end
$var wire 5 l Rs2_i [4:0] $end
$var wire 5 m Rs1_i [4:0] $end
$var reg 2 n ForwardA_o [1:0] $end
$var reg 2 o ForwardB_o [1:0] $end
$upscope $end
$scope module Hazard_Adder $end
$var wire 32 p data_o [31:0] $end
$var wire 32 q data2_in [31:0] $end
$var wire 32 r data1_in [31:0] $end
$upscope $end
$scope module Hazard_Detection $end
$var wire 5 s RS2addr_i [4:0] $end
$var wire 5 t RS1addr_i [4:0] $end
$var wire 1 R MemRead_i $end
$var wire 5 u INS_11_7_i [4:0] $end
$var reg 1 E No_op_o $end
$var reg 1 v PCWrite_o $end
$var reg 1 w Stall_o $end
$upscope $end
$scope module ID_EX $end
$var wire 2 x ALUOp_i [1:0] $end
$var wire 1 G ALUSrc_i $end
$var wire 10 y ALU_i [9:0] $end
$var wire 1 H MemRead_i $end
$var wire 1 I MemToReg_i $end
$var wire 1 J MemWrite_i $end
$var wire 1 K RegWrite_i $end
$var wire 1 ' clk_i $end
$var wire 5 z Rs2_i [4:0] $end
$var wire 5 { Rs1_i [4:0] $end
$var wire 32 | Readdata2_i [31:0] $end
$var wire 32 } Readdata1_i [31:0] $end
$var wire 1 Q MemStall_i $end
$var wire 32 ~ Imm_i [31:0] $end
$var wire 5 !" INS_11_7_i [4:0] $end
$var reg 2 "" ALUOp_o [1:0] $end
$var reg 1 #" ALUSrc_o $end
$var reg 10 $" ALU_o [9:0] $end
$var reg 5 %" INS_11_7_o [4:0] $end
$var reg 32 &" Imm_o [31:0] $end
$var reg 1 R MemRead_o $end
$var reg 1 P MemToReg_o $end
$var reg 1 O MemWrite_o $end
$var reg 32 '" Readdata1_o [31:0] $end
$var reg 32 (" Readdata2_o [31:0] $end
$var reg 1 M RegWrite_o $end
$var reg 5 )" Rs1_o [4:0] $end
$var reg 5 *" Rs2_o [4:0] $end
$upscope $end
$scope module IF_ID $end
$var wire 1 C Flush_i $end
$var wire 1 w Stall_i $end
$var wire 1 ' clk_i $end
$var wire 32 +" PC_i [31:0] $end
$var wire 1 Q MemStall_i $end
$var wire 32 ," IF_ID_i [31:0] $end
$var reg 32 -" IF_ID_o [31:0] $end
$var reg 32 ." PC_o [31:0] $end
$upscope $end
$scope module Instruction_Memory $end
$var wire 32 /" instr_o [31:0] $end
$var wire 32 0" addr_i [31:0] $end
$upscope $end
$scope module MEM_WB $end
$var wire 32 1" ALUresult_i [31:0] $end
$var wire 5 2" INS_11_7_i [4:0] $end
$var wire 1 W MemToReg_i $end
$var wire 1 Z RegWrite_i $end
$var wire 1 ' clk_i $end
$var wire 32 3" Readdata_i [31:0] $end
$var wire 1 Q MemStall_i $end
$var reg 32 4" ALUresult_o [31:0] $end
$var reg 5 5" INS_11_7_o [4:0] $end
$var reg 1 6" MemToReg_o $end
$var reg 32 7" Readdata_o [31:0] $end
$var reg 1 j RegWrite_o $end
$upscope $end
$scope module MUX_ALUSrc $end
$var wire 32 8" data1_i [31:0] $end
$var wire 32 9" data2_i [31:0] $end
$var wire 1 #" select_i $end
$var wire 32 :" data_o [31:0] $end
$upscope $end
$scope module MUX_PC $end
$var wire 32 ;" data1_i [31:0] $end
$var wire 32 <" data2_i [31:0] $end
$var wire 1 C select_i $end
$var wire 32 =" data_o [31:0] $end
$upscope $end
$scope module MUX_RegisterSrc $end
$var wire 32 >" data1_i [31:0] $end
$var wire 32 ?" data2_i [31:0] $end
$var wire 1 6" select_i $end
$var wire 32 @" data_o [31:0] $end
$upscope $end
$scope module PC $end
$var wire 1 v PCWrite_i $end
$var wire 1 ' clk_i $end
$var wire 32 A" pc_i [31:0] $end
$var wire 1 ( rst_i $end
$var wire 1 ) start_i $end
$var wire 1 Q stall_i $end
$var reg 32 B" pc_o [31:0] $end
$upscope $end
$scope module Registers $end
$var wire 5 C" RDaddr_i [4:0] $end
$var wire 32 D" RDdata_i [31:0] $end
$var wire 5 E" RS1addr_i [4:0] $end
$var wire 5 F" RS2addr_i [4:0] $end
$var wire 1 j RegWrite_i $end
$var wire 1 ' clk_i $end
$var wire 32 G" RS2data_o [31:0] $end
$var wire 32 H" RS1data_o [31:0] $end
$upscope $end
$scope module Shift $end
$var wire 32 I" data_i [31:0] $end
$var reg 32 J" data_o [31:0] $end
$upscope $end
$scope module Sign_Extend $end
$var wire 32 K" data_i [31:0] $end
$var reg 32 L" data_o [31:0] $end
$upscope $end
$scope module dcache $end
$var wire 1 M" cache_dirty $end
$var wire 1 N" cache_sram_enable $end
$var wire 4 O" cache_sram_index [3:0] $end
$var wire 1 P" cache_sram_write $end
$var wire 1 ' clk_i $end
$var wire 1 V cpu_MemRead_i $end
$var wire 1 X cpu_MemWrite_i $end
$var wire 32 Q" cpu_addr_i [31:0] $end
$var wire 32 R" cpu_data_i [31:0] $end
$var wire 32 S" cpu_data_o [31:0] $end
$var wire 1 T" cpu_req $end
$var wire 1 Q cpu_stall_o $end
$var wire 256 U" mem_data_o [255:0] $end
$var wire 1 V" mem_enable_o $end
$var wire 1 W" mem_write_o $end
$var wire 1 ( rst_i $end
$var wire 1 X" write_hit $end
$var wire 1 Y" sram_valid $end
$var wire 22 Z" sram_tag [21:0] $end
$var wire 1 [" sram_dirty $end
$var wire 25 \" sram_cache_tag [24:0] $end
$var wire 256 ]" sram_cache_data [255:0] $end
$var wire 256 ^" r_hit_data [255:0] $end
$var wire 256 _" mem_data_i [255:0] $end
$var wire 32 `" mem_addr_o [31:0] $end
$var wire 1 & mem_ack_i $end
$var wire 1 a" hit $end
$var wire 23 b" cpu_tag [22:0] $end
$var wire 5 c" cpu_offset [4:0] $end
$var wire 4 d" cpu_index [3:0] $end
$var wire 25 e" cache_sram_tag [24:0] $end
$var wire 256 f" cache_sram_data [255:0] $end
$var reg 1 g" cache_write $end
$var reg 32 h" cpu_data [31:0] $end
$var reg 1 i" mem_enable $end
$var reg 1 j" mem_write $end
$var reg 3 k" state [2:0] $end
$var reg 256 l" w_hit_data [255:0] $end
$var reg 1 m" write_back $end
$var integer 32 n" tmp1_offset [31:0] $end
$var integer 32 o" tmp2_offset [31:0] $end
$scope module dcache_sram $end
$var wire 4 p" addr_i [3:0] $end
$var wire 1 ' clk_i $end
$var wire 256 q" data_i [255:0] $end
$var wire 1 N" enable_i $end
$var wire 1 ( rst_i $end
$var wire 25 r" tag_i [24:0] $end
$var wire 1 P" write_i $end
$var wire 25 s" tag_o [24:0] $end
$var wire 2 t" select_o [1:0] $end
$var wire 1 a" hit_o $end
$var wire 256 u" data_o [255:0] $end
$var integer 32 v" i [31:0] $end
$var integer 32 w" j [31:0] $end
$scope module SH $end
$var wire 1 a" hit_o $end
$var wire 25 x" select1_i [24:0] $end
$var wire 25 y" select2_i [24:0] $end
$var wire 25 z" tag_i [24:0] $end
$var wire 2 {" ans_select_o [1:0] $end
$var reg 1 |" s1 $end
$var reg 1 }" s2 $end
$upscope $end
$upscope $end
$upscope $end
$upscope $end
$scope module Data_Memory $end
$var wire 1 & ack_o $end
$var wire 32 ~" addr_i [31:0] $end
$var wire 1 ' clk_i $end
$var wire 256 !# data_i [255:0] $end
$var wire 256 "# data_o [255:0] $end
$var wire 1 # enable_i $end
$var wire 1 ( rst_i $end
$var wire 1 $ write_i $end
$var wire 27 ## addr [26:0] $end
$var reg 4 $# count [3:0] $end
$var reg 256 %# data [255:0] $end
$var reg 2 &# state [1:0] $end
$upscope $end
$upscope $end
$enddefinitions $end
#0
$dumpvars
b0 &#
bx %#
b0 $#
bz ##
bx "#
bz !#
bz ~"
x}"
x|"
bx {"
b1xxxxxxxxxxxxxxxxxxxxxxxx z"
bx y"
bx x"
b10 w"
b10000 v"
bx u"
bx t"
bx s"
b1xxxxxxxxxxxxxxxxxxxxxxxx r"
bx q"
bx p"
bx o"
bx n"
0m"
bx l"
b0 k"
0j"
0i"
bx h"
0g"
bx f"
b1xxxxxxxxxxxxxxxxxxxxxxxx e"
bx d"
bx c"
bx b"
xa"
bx00000 `"
bx _"
bx ^"
bx ]"
bx \"
x["
bx Z"
xY"
xX"
0W"
0V"
bx U"
xT"
bx S"
bx R"
bx Q"
xP"
bx O"
xN"
xM"
bx L"
bx K"
bx J"
bx I"
bx H"
bx G"
bx F"
bx E"
bx D"
bx C"
b0 B"
bx A"
bx @"
bx ?"
bx >"
bx ="
bx <"
b100 ;"
bx :"
bx 9"
b0 8"
bx 7"
x6"
bx 5"
bx 4"
bx 3"
bx 2"
bx 1"
b0 0"
bx /"
bx ."
bx -"
bx ,"
b0 +"
bx *"
bx )"
bx ("
bx '"
bx &"
bx %"
bx $"
x#"
bx ""
bx !"
bx ~
bx }
bx |
bx {
bx z
bx y
bx x
xw
xv
bx u
bx t
bx s
bx r
bx q
bx p
bx o
bx n
bx m
bx l
bx k
xj
bx i
b0 h
bx g
bx f
bx e
b0 d
bx c
b0 b
bx a
bx `
bx _
b0 ^
bx ]
bx \
bx [
xZ
bx Y
xX
xW
xV
bx U
bx T
bx S
xR
xQ
xP
xO
b0 N
xM
bx L
xK
xJ
xI
xH
xG
bx F
xE
bx D
xC
xB
xA
b0 @
b100 ?
b100 >
bx =
bx <
bx ;
bx :
bx 9
b0 8
bx 7
z6
bx 5
bz 4
bz 3
bx 2
bx 1
bx 0
bx /
b0 .
bx -
bx ,
x+
bx *
0)
1(
0'
0&
bx %
z$
z#
bz "
bz !
$end
#12
b0 Z"
0["
0Y"
b0 t"
b0 {"
0a"
1A
b0 `"
b0 \"
b0 s"
b0 U"
b0 ]"
b0 u"
b0 n"
0}"
0|"
0P"
0Q
b0 :
b0 L
b0 \
b0 }
b0 H"
b0 [
b0 |
b0 G"
b0 p
b0 <"
b0 r
b0 J"
b100 ="
b100 A"
b0 `
b0 f
b0 @"
b0 D"
bx00000000000000000000000000000000 l"
b0 o"
b0 b"
b0 x"
b0 y"
b0 O"
b0 p"
b0 d"
b0 c"
b1000000000000000000000000 e"
b1000000000000000000000000 r"
b1000000000000000000000000 z"
0M"
0X"
0N"
0T"
b0 e
b0 o
b0 _
b0 n
b0 7
b0 :"
b0 9
b0 =
1v
0E
0w
b0 D
b0 E"
b0 F"
b0 y
b0 !"
b0 {
b0 z
b0 t
b0 s
b0 ~
b0 I"
b0 L"
0C
b101 2
b11 1
b0 k
b0 5"
b0 C"
b0 7"
b0 ?"
b0 4"
b0 >"
06"
0j
b0 U
b0 i
b0 2"
b0 Y
b0 R"
b0 T
b0 ]
b0 c
b0 1"
b0 Q"
0X
0V
0W
0Z
b0 l
b0 *"
b0 m
b0 )"
b0 S
b0 u
b0 %"
b0 ;
b0 $"
b0 &"
b0 9"
b0 g
b0 ("
b0 a
b0 '"
0#"
0O
b0 <
b0 ""
0R
0P
0M
b0 q
b0 ."
b0 -"
b0 K"
0B
b0 F
b0 x
0G
0J
0H
0K
0I
b10 0
b1000000000000111010010011 ,"
b1000000000000111010010011 /"
b1000000000 /
1)
0(
#25
b11110111101000111100110011 ,"
b11110111101000111100110011 /"
b1000 ="
b1000 A"
bx 7"
bx ?"
b1000 ?
b1000 ;"
b100 @
b100 +"
b100 0"
b100 B"
1K
1G
b1 F
b1 x
b100000 p
b100000 <"
b100000 r
b100000 J"
b10011 D
b10000 F"
b11101 !"
b10000 z
b10000 s
b10000 ~
b10000 I"
b10000 L"
b1000000000000111010010011 -"
b1000000000000111010010011 K"
b1 .
0+
1'
#50
0'
#75
b10000 :
b10000 L
b10000 7
b10000 :"
b11110111110000111010110011 ,"
b11110111110000111010110011 /"
b1100 ="
b1100 A"
b10000 l
b10000 *"
b11101 S
b11101 u
b11101 %"
b10000 &"
b10000 9"
b1 <
b1 ""
1#"
1M
b1100 ?
b1100 ;"
b1000 @
b1000 +"
b1000 0"
b1000 B"
0G
b0 F
b0 x
b0 r
b0 J"
b110011 D
b11101 E"
b11101 F"
b1000 y
b11110 !"
b11101 {
b11101 z
b11101 t
b11101 s
b0 ~
b0 I"
b0 L"
b10 .
b100 p
b100 <"
b100 q
b100 ."
b11110111101000111100110011 -"
b11110111101000111100110011 K"
1'
#100
0'
#125
b10000 8
b10000 b
b10000 N
b10000 h
b10000 8"
b100000000 :
b100000000 L
b10000000 o"
bx00000000000000000000000000000000xxxxxxxxxxxxxxxxxxxxxxxxxxxxxxxxxxxxxxxxxxxxxxxxxxxxxxxxxxxxxxxxxxxxxxxxxxxxxxxxxxxxxxxxxxxxxxxxxxxxxxxxxxxxxxxxxxxxxxxxxxxxxxxx l"
b10000000 n"
b100 9
b100 =
b10000 7
b10000 :"
b10000 c"
b10 e
b10 o
b10 _
b10 n
b1110111011000000000010000010011 ,"
b1110111011000000000010000010011 /"
b10000 ="
b10000 A"
b11101 l
b11101 *"
b11101 m
b11101 )"
b11110 S
b11110 u
b11110 %"
b1000 ;
b1000 $"
b0 &"
b0 9"
b0 <
b0 ""
0#"
b11101 U
b11101 i
b11101 2"
b10000 T
b10000 ]
b10000 c
b10000 1"
b10000 Q"
1Z
b10000 ?
b10000 ;"
b1100 @
b1100 +"
b1100 0"
b1100 B"
b11110 E"
b11101 !"
b11110 {
b11110 t
b1000 p
b1000 <"
b1000 q
b1000 ."
b11110111110000111010110011 -"
b11110111110000111010110011 K"
b11 .
1'
#150
0'
#175
b1000000000000 :
b1000000000000 L
b100000000 8
b100000000 b
b10000 N
b10000 h
b10000 8"
b100000000 `"
b0 o"
b0 n"
b10000 `
b10000 f
b10000 @"
b10000 D"
b1000 O"
b1000 p"
b1000 d"
b0 c"
bx00000000000000000000000000010000 l"
b1 e
b1 o
b10 _
b10 n
b11110101000000010000110011 ,"
b11110101000000010000110011 /"
b10100 ="
b10100 A"
b11101 k
b11101 5"
b11101 C"
b10000 4"
b10000 >"
1j
b11110 U
b11110 i
b11110 2"
b100000000 T
b100000000 ]
b100000000 c
b100000000 1"
b100000000 Q"
b10000 Y
b10000 R"
b11110 m
b11110 )"
b11101 S
b11101 u
b11101 %"
b10100 ?
b10100 ;"
b10000 @
b10000 +"
b10000 0"
b10000 B"
1G
b1 F
b1 x
b111011101100 r
b111011101100 J"
b10011 D
b0 E"
b10110 F"
b111011000 y
b1000 !"
b0 {
b10110 z
b0 t
b10110 s
b11101110110 ~
b11101110110 I"
b11101110110 L"
b100 .
b111011111000 p
b111011111000 <"
b1100 q
b1100 ."
b1110111011000000000010000010011 -"
b1110111011000000000010000010011 K"
1'
#200
0'
#225
b0 8
b0 b
b0 N
b0 h
b0 8"
b11101110110 :
b11101110110 L
b1000000000000 `"
b0 9
b0 =
b11101110110 7
b11101110110 :"
b1000000000000000000001000 e"
b1000000000000000000001000 r"
b1000000000000000000001000 z"
b1000 b"
b0 O"
b0 p"
b0 d"
b0 e
b0 o
b0 _
b0 n
b100000000 `
b100000000 f
b100000000 @"
b100000000 D"
b1100101010101000000010000010011 ,"
b1100101010101000000010000010011 /"
b11000 ="
b11000 A"
b10110 l
b10110 *"
b0 m
b0 )"
b1000 S
b1000 u
b1000 %"
b111011000 ;
b111011000 $"
b11101110110 &"
b11101110110 9"
b1 <
b1 ""
1#"
b11101 U
b11101 i
b11101 2"
b1000000000000 T
b1000000000000 ]
b1000000000000 c
b1000000000000 1"
b1000000000000 Q"
b11110 k
b11110 5"
b11110 C"
b100000000 4"
b100000000 >"
b11000 ?
b11000 ;"
b10100 @
b10100 +"
b10100 0"
b10100 B"
0A
b10000 [
b10000 |
b10000 G"
0G
b0 F
b0 x
b0 r
b0 J"
b110011 D
b1000 E"
b11101 F"
b1000 y
b1000 {
b11101 z
b1000 t
b11101 s
b0 ~
b0 I"
b0 L"
b10000 p
b10000 <"
b10000 q
b10000 ."
b11110101000000010000110011 -"
b11110101000000010000110011 K"
b101 .
1'
#250
0'
#275
b11101110110 8
b11101110110 b
b1000000000000 N
b1000000000000 h
b1000000000000 8"
b11101100000 `"
b10110000 o"
b10110000 n"
b11101110110000000000000 :
b11101110110000000000000 L
b1000000000000 `
b1000000000000 f
b1000000000000 @"
b1000000000000 D"
b1000000000000000000000011 e"
b1000000000000000000000011 r"
b1000000000000000000000011 z"
b11 b"
b1011 O"
b1011 p"
b1011 d"
b10110 c"
bx00000000000000000000000000000000xxxxxxxxxxxxxxxxxxxxxxxxxxxxxxxxxxxxxxxxxxxxxxxxxxxxxxxxxxxxxxxxxxxxxxxxxxxxxxxxxxxxxxxxxxxxxxxxxxxxxxxxxxxxxxxxxxxxxxxxxxxxxxxxxxxxxxxxxxxxxxxxxxxxxxxxxxxxxxxxxxxxxxxxxxxxxxxx l"
b1 e
b1 o
b10 _
b10 n
b100 9
b100 =
b1000000000000 7
b1000000000000 :"
b11111001000000010000110011 ,"
b11111001000000010000110011 /"
b11100 ="
b11100 A"
b11101 k
b11101 5"
b11101 C"
b1000000000000 4"
b1000000000000 >"
b1000 U
b1000 i
b1000 2"
b11101110110 T
b11101110110 ]
b11101110110 c
b11101110110 1"
b11101110110 Q"
b0 Y
b0 R"
b11101 l
b11101 *"
b1000 m
b1000 )"
b1000 ;
b1000 $"
b0 &"
b0 9"
b10000 g
b10000 ("
b0 <
b0 ""
0#"
b11100 ?
b11100 ;"
b11000 @
b11000 +"
b11000 0"
b11000 B"
1A
1G
b1 F
b1 x
b0 [
b0 |
b0 G"
b110010101010 r
b110010101010 J"
b10011 D
b10101 F"
b110010000 y
b10101 z
b10101 s
b11001010101 ~
b11001010101 I"
b11001010101 L"
b110 .
b110010111110 p
b110010111110 <"
b10100 q
b10100 ."
b1100101010101000000010000010011 -"
b1100101010101000000010000010011 K"
1'
#300
0'
#325
b11101110110000000000000 8
b11101110110000000000000 b
b0 N
b0 h
b0 8"
b11101110110 \
b11101110110 }
b11101110110 H"
b11101110110011001010101 :
b11101110110011001010101 L
b11101110110000000000000 `"
b0 o"
b0 n"
b0 9
b0 =
b11001010101 7
b11001010101 :"
b1000000000011101110110000 e"
b1000000000011101110110000 r"
b1000000000011101110110000 z"
b11101110110000 b"
b0 O"
b0 p"
b0 d"
b0 c"
bx00000000000000000001000000000000 l"
b0 e
b0 o
b10 _
b10 n
b11101110110 `
b11101110110 f
b11101110110 @"
b11101110110 D"
b100010001000000010000010011 ,"
b100010001000000010000010011 /"
b100000 ="
b100000 A"
b10101 l
b10101 *"
b110010000 ;
b110010000 $"
b11001010101 &"
b11001010101 9"
b0 g
b0 ("
b1 <
b1 ""
1#"
b11101110110000000000000 T
b11101110110000000000000 ]
b11101110110000000000000 c
b11101110110000000000000 1"
b11101110110000000000000 Q"
b1000000000000 Y
b1000000000000 R"
b1000 k
b1000 5"
b1000 C"
b11101110110 4"
b11101110110 >"
b100000 ?
b100000 ;"
b11100 @
b11100 +"
b11100 0"
b11100 B"
0A
0G
b0 F
b0 x
b100000000 [
b100000000 |
b100000000 G"
b0 r
b0 J"
b110011 D
b11110 F"
b1000 y
b11110 z
b11110 s
b0 ~
b0 I"
b0 L"
b11000 p
b11000 <"
b11000 q
b11000 ."
b11111001000000010000110011 -"
b11111001000000010000110011 K"
b111 .
1'
#350
0'
#375
b100000000 N
b100000000 h
b100000000 8"
b11101110110011001010101 8
b11101110110011001010101 b
b11101110110000000000000 \
b11101110110000000000000 }
b11101110110000000000000 H"
b11101110110011001000000 `"
b10101000 o"
b10101000 n"
b1110111011001100101010100000000 :
b1110111011001100101010100000000 L
b11101110110000000000000 `
b11101110110000000000000 f
b11101110110000000000000 @"
b11101110110000000000000 D"
b1000000000011101110110011 e"
b1000000000011101110110011 r"
b1000000000011101110110011 z"
b11101110110011 b"
b10 O"
b10 p"
b10 d"
b10101 c"
bx00000000000000000000000000000000xxxxxxxxxxxxxxxxxxxxxxxxxxxxxxxxxxxxxxxxxxxxxxxxxxxxxxxxxxxxxxxxxxxxxxxxxxxxxxxxxxxxxxxxxxxxxxxxxxxxxxxxxxxxxxxxxxxxxxxxxxxxxxxxxxxxxxxxxxxxxxxxxxxxxxxxxxxxxxxxxxxxxxxx l"
b10 _
b10 n
b100 9
b100 =
b100000000 7
b100000000 :"
b1000100000000000010010010011 ,"
b1000100000000000010010010011 /"
b100100 ="
b100100 A"
b11101110110000000000000 4"
b11101110110000000000000 >"
b11101110110011001010101 T
b11101110110011001010101 ]
b11101110110011001010101 c
b11101110110011001010101 1"
b11101110110011001010101 Q"
b0 Y
b0 R"
b11110 l
b11110 *"
b1000 ;
b1000 $"
b0 &"
b0 9"
b100000000 g
b100000000 ("
b11101110110 a
b11101110110 '"
b0 <
b0 ""
0#"
b100100 ?
b100100 ;"
b100000 @
b100000 +"
b100000 0"
b100000 B"
1G
b1 F
b1 x
b0 [
b0 |
b0 G"
b10001000 r
b10001000 J"
b10011 D
b100 F"
b10000 y
b100 z
b100 s
b1000100 ~
b1000100 I"
b1000100 L"
b1000 .
b10100100 p
b10100100 <"
b11100 q
b11100 ."
b100010001000000010000010011 -"
b100010001000000010000010011 K"
1'
#400
0'
#425
b1110111011001100101010100000000 8
b1110111011001100101010100000000 b
b0 N
b0 h
b0 8"
b1110111011001100101010101000100 :
b1110111011001100101010101000100 L
b1110111011001100101010100000000 `"
b0 o"
b0 n"
b10 _
b10 n
b0 9
b0 =
b1000100 7
b1000100 :"
b1001110111011001100101010 e"
b1001110111011001100101010 r"
b1001110111011001100101010 z"
b1110111011001100101010 b"
b1000 O"
b1000 p"
b1000 d"
b0 c"
bx00000000000000000000000100000000 l"
b11101110110011001010101 `
b11101110110011001010101 f
b11101110110011001010101 @"
b11101110110011001010101 D"
b11111001001000010010110011 ,"
b11111001001000010010110011 /"
b101000 ="
b101000 A"
b100 l
b100 *"
b10000 ;
b10000 $"
b1000100 &"
b1000100 9"
b0 g
b0 ("
b11101110110000000000000 a
b11101110110000000000000 '"
b1 <
b1 ""
1#"
b1110111011001100101010100000000 T
b1110111011001100101010100000000 ]
b1110111011001100101010100000000 c
b1110111011001100101010100000000 1"
b1110111011001100101010100000000 Q"
b100000000 Y
b100000000 R"
b11101110110011001010101 4"
b11101110110011001010101 >"
b101000 ?
b101000 ;"
b100100 @
b100100 +"
b100100 0"
b100100 B"
b0 \
b0 }
b0 H"
b11101110110011001010101 [
b11101110110011001010101 |
b11101110110011001010101 G"
b100010000 r
b100010000 J"
b0 E"
b1000 F"
b100000 y
b1001 !"
b0 {
b1000 z
b0 t
b1000 s
b10001000 ~
b10001000 I"
b10001000 L"
b100110000 p
b100110000 <"
b100000 q
b100000 ."
b1000100000000000010010010011 -"
b1000100000000000010010010011 K"
b1001 .
1'
#450
0'
#475
b1110111011001100101010101000100 N
b1110111011001100101010101000100 h
b1110111011001100101010101000100 8"
b0 8
b0 b
b1110111011001100101010101000000 `"
b100000 o"
b100000 n"
b10001000 :
b10001000 L
b1110111011001100101010100000000 `
b1110111011001100101010100000000 f
b1110111011001100101010100000000 @"
b1110111011001100101010100000000 D"
b1010 O"
b1010 p"
b1010 d"
b100 c"
bx00000000000000000000000000000000xxxxxxxxxxxxxxxxxxxxxxxxxxxxxxxx l"
b10 e
b10 o
b0 _
b0 n
b10001000 7
b10001000 :"
b1001100101001000010010010011 ,"
b1001100101001000010010010011 /"
b101100 ="
b101100 A"
b1110111011001100101010100000000 4"
b1110111011001100101010100000000 >"
b1110111011001100101010101000100 T
b1110111011001100101010101000100 ]
b1110111011001100101010101000100 c
b1110111011001100101010101000100 1"
b1110111011001100101010101000100 Q"
b0 Y
b0 R"
b1000 l
b1000 *"
b0 m
b0 )"
b1001 S
b1001 u
b1001 %"
b100000 ;
b100000 $"
b10001000 &"
b10001000 9"
b11101110110011001010101 g
b11101110110011001010101 ("
b0 a
b0 '"
b101100 ?
b101100 ;"
b101000 @
b101000 +"
b101000 0"
b101000 B"
b100000000 [
b100000000 |
b100000000 G"
0G
b0 F
b0 x
b0 r
b0 J"
b110011 D
b1001 E"
b11110 F"
b1000 y
b1001 {
b11110 z
b1001 t
b11110 s
b0 ~
b0 I"
b0 L"
b1010 .
b100100 p
b100100 <"
b100100 q
b100100 ."
b11111001001000010010110011 -"
b11111001001000010010110011 K"
1'
#500
0'
#525
b10001000 8
b10001000 b
b100000000 N
b100000000 h
b100000000 8"
b1000100000000000 :
b1000100000000000 L
b10000000 `"
b1000000 o"
b1000000 n"
b100 9
b100 =
b100000000 7
b100000000 :"
b10 _
b10 n
b0 e
b0 o
b1000000000000000000000000 e"
b1000000000000000000000000 r"
b1000000000000000000000000 z"
b0 b"
b100 O"
b100 p"
b100 d"
b1000 c"
bx01110111011001100101010101000100xxxxxxxxxxxxxxxxxxxxxxxxxxxxxxxxxxxxxxxxxxxxxxxxxxxxxxxxxxxxxxxx l"
b1110111011001100101010101000100 `
b1110111011001100101010101000100 f
b1110111011001100101010101000100 @"
b1110111011001100101010101000100 D"
b11111001001000010010110011 ,"
b11111001001000010010110011 /"
b110000 ="
b110000 A"
b11110 l
b11110 *"
b1001 m
b1001 )"
b1000 ;
b1000 $"
b0 &"
b0 9"
b100000000 g
b100000000 ("
b0 <
b0 ""
0#"
b1001 U
b1001 i
b1001 2"
b10001000 T
b10001000 ]
b10001000 c
b10001000 1"
b10001000 Q"
b1110111011001100101010101000100 Y
b1110111011001100101010101000100 R"
b1110111011001100101010101000100 4"
b1110111011001100101010101000100 >"
b110000 ?
b110000 ;"
b101100 @
b101100 +"
b101100 0"
b101100 B"
1A
1G
b1 F
b1 x
b0 [
b0 |
b0 G"
b100110010 r
b100110010 J"
b10011 D
b11001 F"
b100000 y
b11001 z
b11001 s
b10011001 ~
b10011001 I"
b10011001 L"
b101011010 p
b101011010 <"
b101000 q
b101000 ."
b1001100101001000010010010011 -"
b1001100101001000010010010011 K"
b1011 .
1'
#550
0'
