codes/CPU.vcd
$date
	Sat Jan  2 16:30:21 2021
$end
$version
	Icarus Verilog
$end
$timescale
	1s
$end
$scope module testbench $end
$var wire 256 ! mem_cpu_data [255:0] $end
$var wire 1 " mem_cpu_ack $end
$var wire 1 # cpu_mem_write $end
$var wire 1 $ cpu_mem_enable $end
$var wire 256 % cpu_mem_data [255:0] $end
$var wire 32 & cpu_mem_addr [31:0] $end
$var reg 1 ' Clk $end
$var reg 1 ( Reset $end
$var reg 1 ) Start $end
$var reg 27 * address [26:0] $end
$var reg 1 + flag $end
$var reg 4 , index [3:0] $end
$var reg 25 - tag [24:0] $end
$var integer 32 . counter [31:0] $end
$var integer 32 / i [31:0] $end
$var integer 32 0 j [31:0] $end
$var integer 32 1 outfile [31:0] $end
$var integer 32 2 outfile2 [31:0] $end
$scope module CPU $end
$var wire 1 ' clk_i $end
$var wire 1 ( rst_i $end
$var wire 1 ) start_i $end
$var wire 1 # mem_write_o $end
$var wire 1 $ mem_enable_o $end
$var wire 256 3 mem_data_o [255:0] $end
$var wire 256 4 mem_data_i [255:0] $end
$var wire 32 5 mem_addr_o [31:0] $end
$var wire 1 " mem_ack_i $end
$scope module ALU $end
$var wire 1 6 Zero_o $end
$var wire 32 7 data2_i [31:0] $end
$var wire 32 8 data1_i [31:0] $end
$var wire 3 9 ALUCtrl_i [2:0] $end
$var reg 32 : data_o [31:0] $end
$upscope $end
$scope module ALU_Control $end
$var wire 10 ; funct_i [9:0] $end
$var wire 2 < ALUOp_i [1:0] $end
$var reg 3 = ALUCtrl_o [2:0] $end
$upscope $end
$scope module Add_PC $end
$var wire 32 > data2_in [31:0] $end
$var wire 32 ? data_o [31:0] $end
$var wire 32 @ data1_in [31:0] $end
$upscope $end
$scope module And_Gat $end
$var wire 1 A input2_i $end
$var wire 1 B input1_i $end
$var reg 1 C data_o $end
$upscope $end
$scope module Control $end
$var wire 7 D Op_i [6:0] $end
$var wire 1 E No_op_i $end
$var reg 2 F ALUOp_o [1:0] $end
$var reg 1 G ALUSrc_o $end
$var reg 1 B Branch_o $end
$var reg 1 H MemRead_o $end
$var reg 1 I MemToReg_o $end
$var reg 1 J MemWrite_o $end
$var reg 1 K RegWrite_o $end
$upscope $end
$scope module EX_MEM $end
$var wire 32 L ALUresult_i [31:0] $end
$var wire 1 ' clk_i $end
$var wire 1 M RegWrite_i $end
$var wire 32 N Readdata2_i [31:0] $end
$var wire 1 O MemWrite_i $end
$var wire 1 P MemToReg_i $end
$var wire 1 Q MemStall_i $end
$var wire 1 R MemRead_i $end
$var wire 5 S INS_11_7_i [4:0] $end
$var reg 32 T ALUresult_o [31:0] $end
$var reg 5 U INS_11_7_o [4:0] $end
$var reg 1 V MemRead_o $end
$var reg 1 W MemToReg_o $end
$var reg 1 X MemWrite_o $end
$var reg 32 Y Readdata2_o [31:0] $end
$var reg 1 Z RegWrite_o $end
$upscope $end
$scope module Equal $end
$var wire 32 [ input2_i [31:0] $end
$var wire 32 \ input1_i [31:0] $end
$var reg 1 A data_o $end
$upscope $end
$scope module ForwardA_MUX $end
$var wire 32 ] input_10_i [31:0] $end
$var wire 32 ^ input_11_i [31:0] $end
$var wire 2 _ select_i [1:0] $end
$var wire 32 ` input_01_i [31:0] $end
$var wire 32 a input_00_i [31:0] $end
$var reg 32 b data_o [31:0] $end
$upscope $end
$scope module ForwardB_MUX $end
$var wire 32 c input_10_i [31:0] $end
$var wire 32 d input_11_i [31:0] $end
$var wire 2 e select_i [1:0] $end
$var wire 32 f input_01_i [31:0] $end
$var wire 32 g input_00_i [31:0] $end
$var reg 32 h data_o [31:0] $end
$upscope $end
$scope module Forwarding_Unit $end
$var wire 5 i MEM_Rd_i [4:0] $end
$var wire 1 Z MEM_RegWrite_i $end
$var wire 1 j WB_RegWrite_i $end
$var wire 5 k WB_Rd_i [4:0] $end
$var wire 5 l Rs2_i [4:0] $end
$var wire 5 m Rs1_i [4:0] $end
$var reg 2 n ForwardA_o [1:0] $end
$var reg 2 o ForwardB_o [1:0] $end
$upscope $end
$scope module Hazard_Adder $end
$var wire 32 p data_o [31:0] $end
$var wire 32 q data2_in [31:0] $end
$var wire 32 r data1_in [31:0] $end
$upscope $end
$scope module Hazard_Detection $end
$var wire 5 s RS2addr_i [4:0] $end
$var wire 5 t RS1addr_i [4:0] $end
$var wire 1 R MemRead_i $end
$var wire 5 u INS_11_7_i [4:0] $end
$var reg 1 E No_op_o $end
$var reg 1 v PCWrite_o $end
$var reg 1 w Stall_o $end
$upscope $end
$scope module ID_EX $end
$var wire 2 x ALUOp_i [1:0] $end
$var wire 1 G ALUSrc_i $end
$var wire 10 y ALU_i [9:0] $end
$var wire 1 H MemRead_i $end
$var wire 1 I MemToReg_i $end
$var wire 1 J MemWrite_i $end
$var wire 1 K RegWrite_i $end
$var wire 1 ' clk_i $end
$var wire 5 z Rs2_i [4:0] $end
$var wire 5 { Rs1_i [4:0] $end
$var wire 32 | Readdata2_i [31:0] $end
$var wire 32 } Readdata1_i [31:0] $end
$var wire 1 Q MemStall_i $end
$var wire 32 ~ Imm_i [31:0] $end
$var wire 5 !" INS_11_7_i [4:0] $end
$var reg 2 "" ALUOp_o [1:0] $end
$var reg 1 #" ALUSrc_o $end
$var reg 10 $" ALU_o [9:0] $end
$var reg 5 %" INS_11_7_o [4:0] $end
$var reg 32 &" Imm_o [31:0] $end
$var reg 1 R MemRead_o $end
$var reg 1 P MemToReg_o $end
$var reg 1 O MemWrite_o $end
$var reg 32 '" Readdata1_o [31:0] $end
$var reg 32 (" Readdata2_o [31:0] $end
$var reg 1 M RegWrite_o $end
$var reg 5 )" Rs1_o [4:0] $end
$var reg 5 *" Rs2_o [4:0] $end
$upscope $end
$scope module IF_ID $end
$var wire 1 C Flush_i $end
$var wire 1 w Stall_i $end
$var wire 1 ' clk_i $end
$var wire 32 +" PC_i [31:0] $end
$var wire 1 Q MemStall_i $end
$var wire 32 ," IF_ID_i [31:0] $end
$var reg 32 -" IF_ID_o [31:0] $end
$var reg 32 ." PC_o [31:0] $end
$upscope $end
$scope module Instruction_Memory $end
$var wire 32 /" instr_o [31:0] $end
$var wire 32 0" addr_i [31:0] $end
$upscope $end
$scope module MEM_WB $end
$var wire 32 1" ALUresult_i [31:0] $end
$var wire 5 2" INS_11_7_i [4:0] $end
$var wire 1 W MemToReg_i $end
$var wire 1 Z RegWrite_i $end
$var wire 1 ' clk_i $end
$var wire 32 3" Readdata_i [31:0] $end
$var wire 1 Q MemStall_i $end
$var reg 32 4" ALUresult_o [31:0] $end
$var reg 5 5" INS_11_7_o [4:0] $end
$var reg 1 6" MemToReg_o $end
$var reg 32 7" Readdata_o [31:0] $end
$var reg 1 j RegWrite_o $end
$upscope $end
$scope module MUX_ALUSrc $end
$var wire 32 8" data1_i [31:0] $end
$var wire 32 9" data2_i [31:0] $end
$var wire 1 #" select_i $end
$var wire 32 :" data_o [31:0] $end
$upscope $end
$scope module MUX_PC $end
$var wire 32 ;" data1_i [31:0] $end
$var wire 32 <" data2_i [31:0] $end
$var wire 1 C select_i $end
$var wire 32 =" data_o [31:0] $end
$upscope $end
$scope module MUX_RegisterSrc $end
$var wire 32 >" data1_i [31:0] $end
$var wire 32 ?" data2_i [31:0] $end
$var wire 1 6" select_i $end
$var wire 32 @" data_o [31:0] $end
$upscope $end
$scope module PC $end
$var wire 1 v PCWrite_i $end
$var wire 1 ' clk_i $end
$var wire 32 A" pc_i [31:0] $end
$var wire 1 ( rst_i $end
$var wire 1 ) start_i $end
$var wire 1 Q stall_i $end
$var reg 32 B" pc_o [31:0] $end
$upscope $end
$scope module Registers $end
$var wire 5 C" RDaddr_i [4:0] $end
$var wire 32 D" RDdata_i [31:0] $end
$var wire 5 E" RS1addr_i [4:0] $end
$var wire 5 F" RS2addr_i [4:0] $end
$var wire 1 j RegWrite_i $end
$var wire 1 ' clk_i $end
$var wire 32 G" RS2data_o [31:0] $end
$var wire 32 H" RS1data_o [31:0] $end
$upscope $end
$scope module Shift $end
$var wire 32 I" data_i [31:0] $end
$var reg 32 J" data_o [31:0] $end
$upscope $end
$scope module Sign_Extend $end
$var wire 32 K" data_i [31:0] $end
$var reg 32 L" data_o [31:0] $end
$upscope $end
$scope module dcache $end
$var wire 1 M" cache_dirty $end
$var wire 1 N" cache_sram_enable $end
$var wire 4 O" cache_sram_index [3:0] $end
$var wire 1 P" cache_sram_write $end
$var wire 1 ' clk_i $end
$var wire 1 V cpu_MemRead_i $end
$var wire 1 X cpu_MemWrite_i $end
$var wire 32 Q" cpu_addr_i [31:0] $end
$var wire 32 R" cpu_data_i [31:0] $end
$var wire 32 S" cpu_data_o [31:0] $end
$var wire 1 T" cpu_req $end
$var wire 1 Q cpu_stall_o $end
$var wire 256 U" mem_data_o [255:0] $end
$var wire 1 $ mem_enable_o $end
$var wire 1 # mem_write_o $end
$var wire 1 ( rst_i $end
$var wire 1 V" write_hit $end
$var wire 1 W" sram_valid $end
$var wire 22 X" sram_tag [21:0] $end
$var wire 1 Y" sram_dirty $end
$var wire 25 Z" sram_cache_tag [24:0] $end
$var wire 256 [" sram_cache_data [255:0] $end
$var wire 256 \" r_hit_data [255:0] $end
$var wire 256 ]" mem_data_i [255:0] $end
$var wire 32 ^" mem_addr_o [31:0] $end
$var wire 1 " mem_ack_i $end
$var wire 1 _" hit $end
$var wire 23 `" cpu_tag [22:0] $end
$var wire 5 a" cpu_offset [4:0] $end
$var wire 4 b" cpu_index [3:0] $end
$var wire 25 c" cache_sram_tag [24:0] $end
$var wire 256 d" cache_sram_data [255:0] $end
$var reg 1 e" cache_write $end
$var reg 32 f" cpu_data [31:0] $end
$var reg 1 g" mem_enable $end
$var reg 1 h" mem_write $end
$var reg 3 i" state [2:0] $end
$var reg 256 j" w_hit_data [255:0] $end
$var reg 1 k" write_back $end
$var integer 32 l" tmp1_offset [31:0] $end
$var integer 32 m" tmp2_offset [31:0] $end
$scope module dcache_sram $end
$var wire 4 n" addr_i [3:0] $end
$var wire 1 ' clk_i $end
$var wire 256 o" data_i [255:0] $end
$var wire 1 N" enable_i $end
$var wire 1 ( rst_i $end
$var wire 25 p" tag_i [24:0] $end
$var wire 1 P" write_i $end
$var wire 25 q" tag_o [24:0] $end
$var wire 2 r" select_o [1:0] $end
$var wire 1 _" hit_o $end
$var wire 256 s" data_o [255:0] $end
$var integer 32 t" i [31:0] $end
$var integer 32 u" j [31:0] $end
$scope module SH $end
$var wire 25 v" select1_i [24:0] $end
$var wire 25 w" select2_i [24:0] $end
$var wire 25 x" tag_i [24:0] $end
$var wire 2 y" ans_select_o [1:0] $end
$var reg 1 z" s1 $end
$var reg 1 {" s2 $end
$upscope $end
$upscope $end
$upscope $end
$upscope $end
$scope module Data_Memory $end
$var wire 1 " ack_o $end
$var wire 32 |" addr_i [31:0] $end
$var wire 1 ' clk_i $end
$var wire 256 }" data_i [255:0] $end
$var wire 256 ~" data_o [255:0] $end
$var wire 1 $ enable_i $end
$var wire 1 ( rst_i $end
$var wire 1 # write_i $end
$var wire 27 !# addr [26:0] $end
$var reg 4 "# count [3:0] $end
$var reg 256 ## data [255:0] $end
$var reg 2 $# state [1:0] $end
$upscope $end
$upscope $end
$enddefinitions $end
#0
$dumpvars
b0 $#
bx ##
b0 "#
bx !#
bx ~"
bx }"
bx00000 |"
x{"
xz"
bx y"
b1xxxxxxxxxxxxxxxxxxxxxxxx x"
bx w"
bx v"
b10 u"
b10000 t"
bx s"
bx r"
bx q"
b1xxxxxxxxxxxxxxxxxxxxxxxx p"
bx o"
bx n"
bx m"
bx l"
0k"
bx j"
b0 i"
0h"
0g"
bx f"
0e"
bx d"
b1xxxxxxxxxxxxxxxxxxxxxxxx c"
bx b"
bx a"
bx `"
x_"
bx00000 ^"
bx ]"
bx \"
bx ["
bx Z"
xY"
bx X"
xW"
xV"
bx U"
xT"
bx S"
bx R"
bx Q"
xP"
bx O"
xN"
xM"
bx L"
bx K"
bx J"
bx I"
bx H"
bx G"
bx F"
bx E"
bx D"
bx C"
b0 B"
bx A"
bx @"
bx ?"
bx >"
bx ="
bx <"
b100 ;"
bx :"
bx 9"
b0 8"
bx 7"
x6"
bx 5"
bx 4"
bx 3"
bx 2"
bx 1"
b0 0"
bx /"
bx ."
bx -"
bx ,"
b0 +"
bx *"
bx )"
bx ("
bx '"
bx &"
bx %"
bx $"
x#"
bx ""
bx !"
bx ~
bx }
bx |
bx {
bx z
bx y
bx x
xw
xv
bx u
bx t
bx s
bx r
bx q
bx p
bx o
bx n
bx m
bx l
bx k
xj
bx i
b0 h
bx g
bx f
bx e
b0 d
bx c
b0 b
bx a
bx `
bx _
b0 ^
bx ]
bx \
bx [
xZ
bx Y
xX
xW
xV
bx U
bx T
bx S
xR
xQ
xP
xO
b0 N
xM
bx L
xK
xJ
xI
xH
xG
bx F
xE
bx D
xC
xB
xA
b0 @
b100 ?
b100 >
bx =
bx <
bx ;
bx :
bx 9
b0 8
bx 7
z6
bx00000 5
bx 4
bx 3
bx 2
bx 1
bx 0
bx /
b0 .
bx -
bx ,
x+
bx *
0)
1(
0'
bx00000 &
bx %
0$
0#
0"
bx !
$end
#12
0_"
b0 !#
b0 X"
0Y"
0W"
b0 r"
b0 y"
1A
b0 &
b0 5
b0 ^"
b0 |"
b0 Z"
b0 q"
b0 %
b0 3
b0 U"
b0 }"
b0 ["
b0 s"
b0 l"
0{"
0z"
0P"
0Q
b0 :
b0 L
b0 \
b0 }
b0 H"
b0 [
b0 |
b0 G"
b0 p
b0 <"
b0 r
b0 J"
b100 ="
b100 A"
b0 `
b0 f
b0 @"
b0 D"
bx00000000000000000000000000000000 j"
b0 m"
b0 `"
b0 v"
b0 w"
b0 O"
b0 n"
b0 b"
b0 a"
b1000000000000000000000000 c"
b1000000000000000000000000 p"
b1000000000000000000000000 x"
0M"
0V"
0N"
0T"
b0 e
b0 o
b0 _
b0 n
b0 7
b0 :"
b0 9
b0 =
1v
0E
0w
b0 D
b0 E"
b0 F"
b0 y
b0 !"
b0 {
b0 z
b0 t
b0 s
b0 ~
b0 I"
b0 L"
0C
b101 2
b11 1
b0 k
b0 5"
b0 C"
b0 7"
b0 ?"
b0 4"
b0 >"
06"
0j
b0 U
b0 i
b0 2"
b0 Y
b0 R"
b0 T
b0 ]
b0 c
b0 1"
b0 Q"
0X
0V
0W
0Z
b0 l
b0 *"
b0 m
b0 )"
b0 S
b0 u
b0 %"
b0 ;
b0 $"
b0 &"
b0 9"
b0 g
b0 ("
b0 a
b0 '"
0#"
0O
b0 <
b0 ""
0R
0P
0M
b0 q
b0 ."
b0 -"
b0 K"
0B
b0 F
b0 x
0G
0J
0H
0K
0I
b10 0
b10010000000011 ,"
b10010000000011 /"
b1000000000 /
1)
0(
#25
b10000000010010010000011 ,"
b10000000010010010000011 /"
b1000 ="
b1000 A"
bx 7"
bx ?"
b1000 ?
b1000 ;"
b100 @
b100 +"
b100 0"
b100 B"
1I
1H
1K
1G
b1 F
b1 x
b11 D
b10 y
b1000 !"
b10010000000011 -"
b10010000000011 K"
b1 .
0+
1'
#50
0'
#75
b100000000010010100000011 ,"
b100000000010010100000011 /"
b1100 ="
b1100 A"
b1000 S
b1000 u
b1000 %"
b10 ;
b10 $"
b1 <
b1 ""
1#"
1R
1P
1M
b1100 ?
b1100 ;"
b1000 @
b1000 +"
b1000 0"
b1000 B"
b1000 r
b1000 J"
b100 F"
b1001 !"
b100 z
b100 s
b100 ~
b100 I"
b100 L"
b10 .
b1100 p
b1100 <"
b100 q
b100 ."
b10000000010010010000011 -"
b10000000010010010000011 K"
1'
#100
0'
#125
b100 :
b100 L
1Q
b100 7
b100 :"
1N"
1T"
b110000000010010110000011 ,"
b110000000010010110000011 /"
b10000 ="
b10000 A"
b100 l
b100 *"
b1001 S
b1001 u
b1001 %"
b100 &"
b100 9"
b1000 U
b1000 i
b1000 2"
1V
1W
1Z
b10000 ?
b10000 ;"
b1100 @
b1100 +"
b1100 0"
b1100 B"
1I
1H
1K
1G
b1 F
b1 x
1v
0E
0w
b10000 r
b10000 J"
b1000 F"
b1010 !"
b1000 z
b1000 s
b1000 ~
b1000 I"
b1000 L"
b11000 p
b11000 <"
b1000 q
b1000 ."
b100000000010010100000011 -"
b100000000010010100000011 K"
b11 .
1'
#150
0'
#175
b100 i"
b100 .
1+
1'
#200
0'
#225
b1 i"
1$
1g"
b101 .
1'
#250
0'
#275
b1 "#
b1 $#
b110 .
1'
#300
0'
#325
b10 "#
b111 .
1'
#350
0'
#375
b11 "#
b1000 .
1'
#400
0'
#425
b100 "#
b1001 .
1'
#450
0'
#475
b101 "#
b1010 .
1'
#500
0'
#525
b110 "#
b1011 .
1'
#550
0'
#575
b111 "#
b1100 .
1'
#600
0'
#625
1"
b1000 "#
b1101 .
1'
#650
0'
#675
1P"
0"
b10 i"
1e"
0$
0g"
b1001 "#
b100010001000100100010001000100011001100110011010001000100010001010101010101010110011001100110011101110111011110001000100010001001100110011001101010101010101010111011101110111100110011001100110111011101110100000000000000000000000000000000 j"
b11101110111011101111111111111111 3"
b11101110111011101111111111111111 S"
b11101110111011101111111111111111 f"
b100010001000100100010001000100011001100110011010001000100010001010101010101010110011001100110011101110111011110001000100010001001100110011001101010101010101010111011101110111100110011001100110111011101110111101110111011101111111111111111 \"
b100010001000100100010001000100011001100110011010001000100010001010101010101010110011001100110011101110111011110001000100010001001100110011001101010101010101010111011101110111100110011001100110111011101110111101110111011101111111111111111 d"
b100010001000100100010001000100011001100110011010001000100010001010101010101010110011001100110011101110111011110001000100010001001100110011001101010101010101010111011101110111100110011001100110111011101110111101110111011101111111111111111 o"
b1110 .
b100010001000100100010001000100011001100110011010001000100010001010101010101010110011001100110011101110111011110001000100010001001100110011001101010101010101010111011101110111100110011001100110111011101110111101110111011101111111111111111 !
b100010001000100100010001000100011001100110011010001000100010001010101010101010110011001100110011101110111011110001000100010001001100110011001101010101010101010111011101110111100110011001100110111011101110111101110111011101111111111111111 4
b100010001000100100010001000100011001100110011010001000100010001010101010101010110011001100110011101110111011110001000100010001001100110011001101010101010101010111011101110111100110011001100110111011101110111101110111011101111111111111111 ]"
b100010001000100100010001000100011001100110011010001000100010001010101010101010110011001100110011101110111011110001000100010001001100110011001101010101010101010111011101110111100110011001100110111011101110111101110111011101111111111111111 ~"
b100010001000100100010001000100011001100110011010001000100010001010101010101010110011001100110011101110111011110001000100010001001100110011001101010101010101010111011101110111100110011001100110111011101110111101110111011101111111111111111 ##
1'
#700
0'
#725
0P"
b0 "#
b0 $#
b0 i"
0e"
0Q
b100010001000100100010001000100011001100110011010001000100010001010101010101010110011001100110011101110111011110001000100010001001100110011001101010101010101010111011101110111100110011001100110111011101110100000000000000000000000000000000 d"
b100010001000100100010001000100011001100110011010001000100010001010101010101010110011001100110011101110111011110001000100010001001100110011001101010101010101010111011101110111100110011001100110111011101110100000000000000000000000000000000 o"
1_"
1W"
b100010001000100100010001000100011001100110011010001000100010001010101010101010110011001100110011101110111011110001000100010001001100110011001101010101010101010111011101110111100110011001100110111011101110111101110111011101111111111111111 %
b100010001000100100010001000100011001100110011010001000100010001010101010101010110011001100110011101110111011110001000100010001001100110011001101010101010101010111011101110111100110011001100110111011101110111101110111011101111111111111111 3
b100010001000100100010001000100011001100110011010001000100010001010101010101010110011001100110011101110111011110001000100010001001100110011001101010101010101010111011101110111100110011001100110111011101110111101110111011101111111111111111 U"
b100010001000100100010001000100011001100110011010001000100010001010101010101010110011001100110011101110111011110001000100010001001100110011001101010101010101010111011101110111100110011001100110111011101110111101110111011101111111111111111 }"
b100010001000100100010001000100011001100110011010001000100010001010101010101010110011001100110011101110111011110001000100010001001100110011001101010101010101010111011101110111100110011001100110111011101110111101110111011101111111111111111 ["
b100010001000100100010001000100011001100110011010001000100010001010101010101010110011001100110011101110111011110001000100010001001100110011001101010101010101010111011101110111100110011001100110111011101110111101110111011101111111111111111 s"
b1000000000000000000000000 Z"
b1000000000000000000000000 q"
b1 r"
b1 y"
1z"
b1111 .
b1000000000000000000000000 v"
1'
#750
0'
#775
b11101110111011101111111111111111 N
b11101110111011101111111111111111 h
b11101110111011101111111111111111 8"
b100010001000100100010001000100011001100110011010001000100010001010101010101010110011001100110011101110111011110001000100010001001100110011001101010101010101010111011101110110000000000000000000000000000000011101110111011101111111111111111 d"
b100010001000100100010001000100011001100110011010001000100010001010101010101010110011001100110011101110111011110001000100010001001100110011001101010101010101010111011101110110000000000000000000000000000000011101110111011101111111111111111 o"
b100000 m"
b100010001000100100010001000100011001100110011010001000100010001010101010101010110011001100110011101110111011110001000100010001001100110011001101010101010101010111011101110110000000000000000000000000000000011101110111011101111111111111111 j"
b11001100110011001101110111011101 3"
b11001100110011001101110111011101 S"
b11001100110011001101110111011101 f"
b100000 l"
b1000 :
b1000 L
b11101110111011101111111111111111 `
b11101110111011101111111111111111 f
b11101110111011101111111111111111 @"
b11101110111011101111111111111111 D"
b100 a"
b1 e
b1 o
b1000 7
b1000 :"
b1000000000010011000000011 ,"
b1000000000010011000000011 /"
b10100 ="
b10100 A"
b1000 k
b1000 5"
b1000 C"
b11101110111011101111111111111111 7"
b11101110111011101111111111111111 ?"
16"
1j
b1001 U
b1001 i
b1001 2"
b100 T
b100 ]
b100 c
b100 1"
b100 Q"
b1000 l
b1000 *"
b1010 S
b1010 u
b1010 %"
b1000 &"
b1000 9"
b10100 ?
b10100 ;"
b10000 @
b10000 +"
b10000 0"
b10000 B"
b11000 r
b11000 J"
b1100 F"
b1011 !"
b1100 z
b1100 s
b1100 ~
b1100 I"
b1100 L"
b10000 .
0+
b100100 p
b100100 <"
b1100 q
b1100 ."
b110000000010010110000011 -"
b110000000010010110000011 K"
1'
#800
0'
#825
b0 N
b0 h
b0 8"
b1100 :
b1100 L
b1000000 m"
b10101010101010101011101110111011 3"
b10101010101010101011101110111011 S"
b10101010101010101011101110111011 f"
b1000000 l"
b100010001000100100010001000100011001100110011010001000100010001010101010101010110011001100110011101110111011110001000100010001001100110011001111011101110111011111111111111111100110011001100110111011101110111101110111011101111111111111111 d"
b100010001000100100010001000100011001100110011010001000100010001010101010101010110011001100110011101110111011110001000100010001001100110011001111011101110111011111111111111111100110011001100110111011101110111101110111011101111111111111111 o"
b1100 7
b1100 :"
b1000 a"
b100010001000100100010001000100011001100110011010001000100010001010101010101010110011001100110011101110111011110001000100010001001100110011001111011101110111011111111111111111100110011001100110111011101110111101110111011101111111111111111 j"
b0 e
b0 o
b11001100110011001101110111011101 `
b11001100110011001101110111011101 f
b11001100110011001101110111011101 @"
b11001100110011001101110111011101 D"
b1010000000010011010000011 ,"
b1010000000010011010000011 /"
b11000 ="
b11000 A"
b1100 l
b1100 *"
b1011 S
b1011 u
b1011 %"
b1100 &"
b1100 9"
b1010 U
b1010 i
b1010 2"
b1000 T
b1000 ]
b1000 c
b1000 1"
b1000 Q"
b11101110111011101111111111111111 Y
b11101110111011101111111111111111 R"
b1001 k
b1001 5"
b1001 C"
b100 4"
b100 >"
b11001100110011001101110111011101 7"
b11001100110011001101110111011101 ?"
b11000 ?
b11000 ;"
b10100 @
b10100 +"
b10100 0"
b10100 B"
b100000 r
b100000 J"
b10000 F"
b1100 !"
b10000 z
b10000 s
b10000 ~
b10000 I"
b10000 L"
b110000 p
b110000 <"
b10000 q
b10000 ."
b1000000000010011000000011 -"
b1000000000010011000000011 K"
b10001 .
1'
#850
0'
#875
b1100000 m"
b10001000100010001001100110011001 3"
b10001000100010001001100110011001 S"
b10001000100010001001100110011001 f"
b1100000 l"
b100010001000100100010001000100011001100110011010001000100010001010101010101010110011001100110011101110111011100000000000000000000000000000000101010101010101010111011101110111100110011001100110111011101110111101110111011101111111111111111 d"
b100010001000100100010001000100011001100110011010001000100010001010101010101010110011001100110011101110111011100000000000000000000000000000000101010101010101010111011101110111100110011001100110111011101110111101110111011101111111111111111 o"
b10000 :
b10000 L
b10101010101010101011101110111011 `
b10101010101010101011101110111011 f
b10101010101010101011101110111011 @"
b10101010101010101011101110111011 D"
b1100 a"
b100010001000100100010001000100011001100110011010001000100010001010101010101010110011001100110011101110111011100000000000000000000000000000000101010101010101010111011101110111100110011001100110111011101110111101110111011101111111111111111 j"
b10000 7
b10000 :"
b1100000000010011100000011 ,"
b1100000000010011100000011 /"
b11100 ="
b11100 A"
b1010 k
b1010 5"
b1010 C"
b1000 4"
b1000 >"
b10101010101010101011101110111011 7"
b10101010101010101011101110111011 ?"
b1011 U
b1011 i
b1011 2"
b1100 T
b1100 ]
b1100 c
b1100 1"
b1100 Q"
b0 Y
b0 R"
b10000 l
b10000 *"
b1100 S
b1100 u
b1100 %"
b10000 &"
b10000 9"
b11100 ?
b11100 ;"
b11000 @
b11000 +"
b11000 0"
b11000 B"
b101000 r
b101000 J"
b10100 F"
b1101 !"
b10100 z
b10100 s
b10100 ~
b10100 I"
b10100 L"
b10010 .
b111100 p
b111100 <"
b10100 q
b10100 ."
b1010000000010011010000011 -"
b1010000000010011010000011 K"
1'
#900
0'
#925
b100010001000100100010001000100011001100110011010001000100010001010101010101010000000000000000000000000000000010001000100010001001100110011001101010101010101010111011101110111100110011001100110111011101110111101110111011101111111111111111 d"
b100010001000100100010001000100011001100110011010001000100010001010101010101010000000000000000000000000000000010001000100010001001100110011001101010101010101010111011101110111100110011001100110111011101110111101110111011101111111111111111 o"
b10100 :
b10100 L
b10000000 m"
b100010001000100100010001000100011001100110011010001000100010001010101010101010000000000000000000000000000000010001000100010001001100110011001101010101010101010111011101110111100110011001100110111011101110111101110111011101111111111111111 j"
b1100110011001100111011101110111 3"
b1100110011001100111011101110111 S"
b1100110011001100111011101110111 f"
b10000000 l"
b10100 7
b10100 :"
b10000 a"
b10001000100010001001100110011001 `
b10001000100010001001100110011001 f
b10001000100010001001100110011001 @"
b10001000100010001001100110011001 D"
b1110000000010011110000011 ,"
b1110000000010011110000011 /"
b100000 ="
b100000 A"
b10100 l
b10100 *"
b1101 S
b1101 u
b1101 %"
b10100 &"
b10100 9"
b1100 U
b1100 i
b1100 2"
b10000 T
b10000 ]
b10000 c
b10000 1"
b10000 Q"
b1011 k
b1011 5"
b1011 C"
b1100 4"
b1100 >"
b10001000100010001001100110011001 7"
b10001000100010001001100110011001 ?"
b100000 ?
b100000 ;"
b11100 @
b11100 +"
b11100 0"
b11100 B"
b110000 r
b110000 J"
b11000 F"
b1110 !"
b11000 z
b11000 s
b11000 ~
b11000 I"
b11000 L"
b1001000 p
b1001000 <"
b11000 q
b11000 ."
b1100000000010011100000011 -"
b1100000000010011100000011 K"
b10011 .
1'
#950
0'
#975
b100010001000100100010001000100011001100110011000000000000000000000000000000000110011001100110011101110111011110001000100010001001100110011001101010101010101010111011101110111100110011001100110111011101110111101110111011101111111111111111 d"
b100010001000100100010001000100011001100110011000000000000000000000000000000000110011001100110011101110111011110001000100010001001100110011001101010101010101010111011101110111100110011001100110111011101110111101110111011101111111111111111 o"
b10100000 m"
b100010001000100100010001000100011001100110011000000000000000000000000000000000110011001100110011101110111011110001000100010001001100110011001101010101010101010111011101110111100110011001100110111011101110111101110111011101111111111111111 j"
b1000100010001000101010101010101 3"
b1000100010001000101010101010101 S"
b1000100010001000101010101010101 f"
b10100000 l"
b11000 :
b11000 L
b1100110011001100111011101110111 `
b1100110011001100111011101110111 f
b1100110011001100111011101110111 @"
b1100110011001100111011101110111 D"
b10100 a"
b11000 7
b11000 :"
b10000000000010100000000011 ,"
b10000000000010100000000011 /"
b100100 ="
b100100 A"
b1100 k
b1100 5"
b1100 C"
b10000 4"
b10000 >"
b1100110011001100111011101110111 7"
b1100110011001100111011101110111 ?"
b1101 U
b1101 i
b1101 2"
b10100 T
b10100 ]
b10100 c
b10100 1"
b10100 Q"
b11000 l
b11000 *"
b1110 S
b1110 u
b1110 %"
b11000 &"
b11000 9"
b100100 ?
b100100 ;"
b100000 @
b100000 +"
b100000 0"
b100000 B"
b111000 r
b111000 J"
b11100 F"
b1111 !"
b11100 z
b11100 s
b11100 ~
b11100 I"
b11100 L"
b10100 .
b1010100 p
b1010100 <"
b11100 q
b11100 ."
b1110000000010011110000011 -"
b1110000000010011110000011 K"
1'
#1000
0'
#1025
b100010001000100000000000000000000000000000000010001000100010001010101010101010110011001100110011101110111011110001000100010001001100110011001101010101010101010111011101110111100110011001100110111011101110111101110111011101111111111111111 d"
b100010001000100000000000000000000000000000000010001000100010001010101010101010110011001100110011101110111011110001000100010001001100110011001101010101010101010111011101110111100110011001100110111011101110111101110111011101111111111111111 o"
b11100 :
b11100 L
b11000000 m"
b100010001000100000000000000000000000000000000010001000100010001010101010101010110011001100110011101110111011110001000100010001001100110011001101010101010101010111011101110111100110011001100110111011101110111101110111011101111111111111111 j"
b100010001000100011001100110011 3"
b100010001000100011001100110011 S"
b100010001000100011001100110011 f"
b11000000 l"
b11100 7
b11100 :"
b11000 a"
b1000100010001000101010101010101 `
b1000100010001000101010101010101 f
b1000100010001000101010101010101 @"
b1000100010001000101010101010101 D"
b10010000000010100010000011 ,"
b10010000000010100010000011 /"
b101000 ="
b101000 A"
b11100 l
b11100 *"
b1111 S
b1111 u
b1111 %"
b11100 &"
b11100 9"
b1110 U
b1110 i
b1110 2"
b11000 T
b11000 ]
b11000 c
b11000 1"
b11000 Q"
b1101 k
b1101 5"
b1101 C"
b10100 4"
b10100 >"
b1000100010001000101010101010101 7"
b1000100010001000101010101010101 ?"
b101000 ?
b101000 ;"
b100100 @
b100100 +"
b100100 0"
b100100 B"
b1000000 r
b1000000 J"
b0 F"
b1010 y
b10000 !"
b0 z
b0 s
b100000 ~
b100000 I"
b100000 L"
b1100000 p
b1100000 <"
b100000 q
b100000 ."
b10000000000010100000000011 -"
b10000000000010100000000011 K"
b10101 .
1'
#1050
0'
